\relax 
\catcode`:\active
\catcode`;\active
\catcode`!\active
\catcode`?\active
\select@language{french}
\@writefile{toc}{\select@language{french}}
\@writefile{lof}{\select@language{french}}
\@writefile{lot}{\select@language{french}}
\@writefile{toc}{\contentsline {chapter}{Introduction}{i}}
\@writefile{lof}{\addvspace {10\p@ }}
\@writefile{lot}{\addvspace {10\p@ }}
\@writefile{toc}{\contentsline {part}{I\hspace  {1em}D\IeC {\'e}claration des droits de l'homme et du citoyen de 1789}{1}}
\@writefile{toc}{\contentsline {chapter}{\numberline {1}Histoire}{3}}
\@writefile{lof}{\addvspace {10\p@ }}
\@writefile{lot}{\addvspace {10\p@ }}
\@writefile{toc}{\contentsline {chapter}{\numberline {2}Le texte}{5}}
\@writefile{lof}{\addvspace {10\p@ }}
\@writefile{lot}{\addvspace {10\p@ }}
\@writefile{toc}{\contentsline {section}{\numberline {2.1}Introduction}{5}}
\@writefile{toc}{\contentsline {section}{\numberline {2.2}Les articles}{5}}
\@writefile{toc}{\contentsline {paragraph}{Article premier}{5}}
\@writefile{toc}{\contentsline {paragraph}{Article 2}{5}}
\@writefile{toc}{\contentsline {paragraph}{Article 3}{5}}
\@writefile{toc}{\contentsline {paragraph}{Article 4}{5}}
\@writefile{toc}{\contentsline {paragraph}{Article 5}{5}}
\@writefile{toc}{\contentsline {paragraph}{Article 6}{5}}
\@writefile{toc}{\contentsline {paragraph}{Article 7}{5}}
\@writefile{toc}{\contentsline {paragraph}{Article 8}{6}}
\@writefile{toc}{\contentsline {paragraph}{Article 9}{6}}
\@writefile{toc}{\contentsline {paragraph}{Article 10}{6}}
\@writefile{toc}{\contentsline {paragraph}{Article 11}{6}}
\@writefile{toc}{\contentsline {paragraph}{Article 12}{6}}
\@writefile{toc}{\contentsline {paragraph}{Article 13}{6}}
\@writefile{toc}{\contentsline {paragraph}{Article 14}{6}}
\@writefile{toc}{\contentsline {paragraph}{Article 15}{6}}
\@writefile{toc}{\contentsline {paragraph}{Article 16}{6}}
\@writefile{toc}{\contentsline {paragraph}{Article 17}{6}}
\@writefile{toc}{\contentsline {chapter}{\numberline {3}Sources}{7}}
\@writefile{lof}{\addvspace {10\p@ }}
\@writefile{lot}{\addvspace {10\p@ }}
\@writefile{toc}{\contentsline {chapter}{\numberline {A}La r\IeC {\'e}volution fran\IeC {\c c}aise}{9}}
\@writefile{lof}{\addvspace {10\p@ }}
\@writefile{lot}{\addvspace {10\p@ }}
\@writefile{toc}{\contentsline {chapter}{Sources et licences}{11}}
\@writefile{lof}{\addvspace {10\p@ }}
\@writefile{lot}{\addvspace {10\p@ }}
\@writefile{toc}{\contentsline {paragraph}{Vous \IeC {\^e}tes libres :}{11}}
\@writefile{toc}{\contentsline {paragraph}{Selon les conditions suivantes :}{11}}
