\headcommand {\slideentry {0}{0}{1}{1/1}{}{0}}
\headcommand {\beamer@framepages {1}{1}}
\headcommand {\partentry {Cahier des charges}{1}}
\headcommand {\beamer@partpages {1}{1}}
\headcommand {\beamer@sectionpages {1}{1}}
\headcommand {\beamer@subsectionpages {1}{1}}
\headcommand {\sectionentry {1}{Principes fondamentaux}{2}{Principes fondamentaux}{1}}
\headcommand {\beamer@sectionpages {2}{1}}
\headcommand {\beamer@subsectionpages {2}{1}}
\headcommand {\sectionentry {2}{Organisation du programme}{2}{Organisation du programme}{1}}
\headcommand {\beamer@sectionpages {2}{1}}
\headcommand {\beamer@subsectionpages {2}{1}}
\headcommand {\beamer@subsectionentry {1}{2}{1}{2}{D\IeC {\'e}marrage}}\headcommand {\beamer@subsectionpages {2}{1}}
\headcommand {\beamer@subsectionentry {1}{2}{2}{2}{Fen\IeC {\^e}tre de s\IeC {\'e}lection de couleurs}}\headcommand {\beamer@subsectionpages {2}{1}}
\headcommand {\beamer@subsectionentry {1}{2}{3}{3}{Fen\IeC {\^e}tre du jeu}}\headcommand {\beamer@subsectionpages {2}{2}}
\headcommand {\beamer@subsubsectionentry {1}{2}{3}{1}{3}{Le tableau}}
\headcommand {\beamer@subsubsectionentry {1}{2}{3}{2}{3}{Les commandes}}
\headcommand {\partentry {Architecture}{2}}
\headcommand {\beamer@partpages {2}{3}}
\headcommand {\beamer@sectionpages {2}{3}}
\headcommand {\beamer@subsectionpages {3}{3}}
\headcommand {\partentry {R\IeC {\'e}partition du travail}{3}}
\headcommand {\beamer@partpages {4}{5}}
\headcommand {\beamer@sectionpages {4}{5}}
\headcommand {\beamer@subsectionpages {4}{5}}
\headcommand {\sectionentry {3}{Yoann}{6}{Yoann}{3}}
\headcommand {\beamer@sectionpages {6}{5}}
\headcommand {\beamer@subsectionpages {6}{5}}
\headcommand {\sectionentry {4}{R\IeC {\'e}mi}{6}{R\IeC {\'e}mi}{3}}
\headcommand {\beamer@sectionpages {6}{5}}
\headcommand {\beamer@subsectionpages {6}{5}}
\headcommand {\partentry {Commentaire}{4}}
\headcommand {\beamer@partpages {6}{5}}
\headcommand {\beamer@sectionpages {6}{5}}
\headcommand {\beamer@subsectionpages {6}{5}}
\headcommand {\sectionentry {5}{Graphic}{6}{Graphic}{4}}
\headcommand {\beamer@sectionpages {6}{5}}
\headcommand {\beamer@subsectionpages {6}{5}}
\headcommand {\sectionentry {6}{Game}{7}{Game}{4}}
\headcommand {\beamer@sectionpages {6}{6}}
\headcommand {\beamer@subsectionpages {6}{6}}
\headcommand {\sectionentry {7}{Tool/read}{7}{Tool/read}{4}}
\headcommand {\beamer@sectionpages {7}{6}}
\headcommand {\beamer@subsectionpages {7}{6}}
\headcommand {\partentry {Conclusion}{5}}
\headcommand {\beamer@partpages {6}{6}}
\headcommand {\beamer@sectionpages {7}{6}}
\headcommand {\beamer@subsectionpages {7}{6}}
\headcommand {\beamer@partpages {7}{8}}
\headcommand {\beamer@subsectionpages {7}{8}}
\headcommand {\beamer@sectionpages {7}{8}}
\headcommand {\beamer@documentpages {8}}
\headcommand {\def \inserttotalframenumber {1}}
