\select@language {french}
\contentsline {chapter}{\numberline {1}Cahier des charges}{2}
\contentsline {section}{\numberline {1.1}Principes fondamentaux}{2}
\contentsline {section}{\numberline {1.2}Organisation du programme}{2}
\contentsline {subsection}{\numberline {1.2.1}D\IeC {\'e}marrage}{2}
\contentsline {subsection}{\numberline {1.2.2}Fen\IeC {\^e}tre de s\IeC {\'e}lection de couleurs}{2}
\contentsline {subsection}{\numberline {1.2.3}Fen\IeC {\^e}tre du jeu}{2}
\contentsline {subsubsection}{Le tableau}{2}
\contentsline {subsubsection}{Les commandes}{3}
\contentsline {chapter}{\numberline {2}Architecture}{4}
\contentsline {chapter}{\numberline {3}R\IeC {\'e}partition du travail}{6}
\contentsline {section}{\numberline {3.1}Yoann}{6}
\contentsline {section}{\numberline {3.2}R\IeC {\'e}mi}{6}
\contentsline {chapter}{\numberline {4}Commentaire}{7}
\contentsline {section}{\numberline {4.1}Launcher}{7}
\contentsline {section}{\numberline {4.2}Graphic}{7}
\contentsline {section}{\numberline {4.3}Game}{7}
\contentsline {section}{\numberline {4.4}Tool/read}{7}
\contentsline {chapter}{\numberline {5}Conclusion}{8}
