\relax 
\catcode `:\active 
\catcode `;\active 
\catcode `!\active 
\catcode `?\active 
\select@language{french}
\@writefile{toc}{\select@language{french}}
\@writefile{lof}{\select@language{french}}
\@writefile{lot}{\select@language{french}}
\@writefile{toc}{\contentsline {chapter}{\numberline {1}Cahier des charges}{2}}
\@writefile{lof}{\addvspace {10\p@ }}
\@writefile{lot}{\addvspace {10\p@ }}
\@writefile{toc}{\contentsline {section}{\numberline {1.1}Principes fondamentaux}{2}}
\@writefile{toc}{\contentsline {section}{\numberline {1.2}Organisation du programme}{2}}
\@writefile{toc}{\contentsline {subsection}{\numberline {1.2.1}D\IeC {\'e}marrage}{2}}
\@writefile{toc}{\contentsline {subsection}{\numberline {1.2.2}Fen\IeC {\^e}tre de s\IeC {\'e}lection de couleurs}{2}}
\@writefile{toc}{\contentsline {subsection}{\numberline {1.2.3}Fen\IeC {\^e}tre du jeu}{2}}
\@writefile{toc}{\contentsline {subsubsection}{Le tableau}{2}}
\@writefile{toc}{\contentsline {subsubsection}{Les commandes}{3}}
\@writefile{toc}{\contentsline {chapter}{\numberline {2}Architecture}{4}}
\@writefile{lof}{\addvspace {10\p@ }}
\@writefile{lot}{\addvspace {10\p@ }}
\@writefile{toc}{\contentsline {chapter}{\numberline {3}R\IeC {\'e}partition du travail}{6}}
\@writefile{lof}{\addvspace {10\p@ }}
\@writefile{lot}{\addvspace {10\p@ }}
\@writefile{toc}{\contentsline {section}{\numberline {3.1}Yoann}{6}}
\@writefile{toc}{\contentsline {section}{\numberline {3.2}R\IeC {\'e}mi}{6}}
\@writefile{toc}{\contentsline {chapter}{\numberline {4}Commentaire}{7}}
\@writefile{lof}{\addvspace {10\p@ }}
\@writefile{lot}{\addvspace {10\p@ }}
\@writefile{toc}{\contentsline {section}{\numberline {4.1}Launcher}{7}}
\@writefile{toc}{\contentsline {section}{\numberline {4.2}Graphic}{7}}
\@writefile{toc}{\contentsline {section}{\numberline {4.3}Game}{7}}
\@writefile{toc}{\contentsline {section}{\numberline {4.4}Tool/read}{7}}
\@writefile{toc}{\contentsline {chapter}{\numberline {5}Conclusion}{8}}
\@writefile{lof}{\addvspace {10\p@ }}
\@writefile{lot}{\addvspace {10\p@ }}
